AntiFeatures:NonFreeDep
Categories:Navigation
License:NetBSD/Apache2
Web Site:http://apps4av.com/avare-overview
Source Code:https://github.com/apps4av/avare
Issue Tracker:https://github.com/apps4av/avare/issues
Donate:http://mamba.dreamhosters.com/donate.html

Auto Name:Avare
Summary:Aviation map
Description:
Avare (pronounced "AvAir") is a free moving aviation map. Basic features include
online or offline A/FD info, approach plates and GPS moving map on all FAA VFR
sectionals, WACs and TACs, plus IFR low charts and airport diagrams. Avare also
enables manual browsing of all charts and all other materials even without cell
service or GPS. Current FAA weather METARs, TAFs and TFRs are provided too.

Notice: This is not an FAA certified GPS. AntiFeatures: A Google account is
required.
.

Repo Type:git
Repo:https://github.com/apps4av/avare

Build:5.7.1,191
    commit=347fd3de7f7cf128eb0313a5dfbc7ec3f68d310a

Build:5.7.2,192
    commit=9c48969574245397ae642cb5ef461d8837c79ed7

Build:5.7.3,193
    commit=7676639a23a7e6a8c0ec422386ac25591e401086

Build:5.7.4,194
    commit=64ef5a4855d0824543367c94f6999ec22411bb1d

Build:5.7.5,195
    commit=fd195ab68061da67d993209f755ee100d95d28bf

Build:5.7.6,196
    commit=1fc9c8dfd5ae7a413aedcaef85981cca74e318e8

Build:5.7.7,197
    commit=c1367125ef23ee924389dbdd6d97af46d387858a

Build:5.7.8,198
    commit=09f963f9241cad7920cc2502fee8fc2359bdec1f

Build:5.7.9,199
    commit=15abeb7d7643fb2e354c1d35df11de446d6b026b

Build:5.8.0,200
    commit=8e8a3ee272041202b8dafb40bde10e6c7e83786a

Build:5.8.2,202
    commit=5de1ac4d03a4ab9c39b364b895586860c8bdea1b

Build:5.8.3,203
    commit=1e919099a6ece3ff822815cb375289b66250db01

Build:5.8.4,204
    commit=4cb84738a7d00f9a4336eb0595361c33cc4e535f

Build:5.8.5,205
    commit=1a82f418363ead24cc3a34da849021047ecf5762

Build:5.8.6,206
    commit=adea4cd9be07df120dd6b90f9960aad9cca17117

Build:5.8.7,207
    commit=a57d7955137aa11187888b79084ee90b7b98ff6e

Build:5.8.8,208
    commit=3267e885a9b765e36fdd7b933fa906ed83da20c3

Build:5.9.0,210
    commit=ece52bba1c68ba8f2fd80babdd3e0c9d0a110598

Build:5.9.1,211
    commit=ec9e0e5a8b76e922f563b79c92a014eea2a50dcb

Build:5.9.2,212
    commit=757b2ec593622c4d592d007452395ff784cb7359

Build:5.9.3,213
    commit=44e67ca668c8eb0fc269a498206c48561dd2e008

Build:5.9.4,214
    commit=4cb120d0be75656462d1dcdcd89fab37ea1cb8b6

Build:5.9.5,215
    commit=08a089a

Build:5.9.6,216
    commit=6f2dceeb03bf484ba400ca24f6c59ae4f0853885

Build:5.9.7,217
    commit=04c76b6ea5b4b2116ba5a140762554658e1c377d

Build:5.9.8,218
    commit=60c7f512ecb50bfe7b39364e096913b7f193d127

Build:5.9.9,219
    commit=b0d84372169ba60e256193365a0b60637e2dcae4

Build:6.0.0,220
    commit=e0e6940469f3b3f530fa63493a99c28cc33fbe29

Build:6.0.1,221
    commit=4061a23bc7223ecf18fe7ab6392b39a4178710ab

Build:6.0.2,222
    commit=eb0d39415e8b3338eebbb00dcbe871be44b987f4

Build:6.0.3,223
    commit=72b3a5c65ee2e2f7966d3921f820bd59a6428d44

Build:6.0.4,224
    commit=4f6cdeae8c6d7e458994617a9af485dae6439728

Build:6.0.5,225
    commit=5c877915f7e12909435168ad74fb0ec2b2f96491

Build:6.0.6,226
    commit=9c51095e5589728c2cc5b045c525862f142a4b21

Build:6.0.7,227
    commit=ce5e0d55876bf3db7156f6fdbb011382874df435

Build:6.0.8,228
    commit=c7cd008bd8a5da5e938ce1fcf2914e36db96c1a0
    subdir=app
    gradle=yes

Build:6.0.9,229
    commit=6619fca686ccd189d0a83c3a494b5ef9d86163bc
    subdir=app
    gradle=yes

Build:6.1.0,230
    commit=c31d82c51801ac235219bafdc969a4d36e82a074
    subdir=app
    gradle=yes

Build:7.0.2,232
    disable=play-services
    commit=c31d82c51801ac235219bafdc969a4d36e82a074
    subdir=app
    gradle=yes

Maintainer Notes:
Licensing info via https://github.com/apps4av/avare/issues/88 :
All files have Apache style licesnes on them. If any is missing a license
we will add when we find.

7.0.x+ are using play-services, see https://github.com/apps4av/avare/issues/154
.

Auto Update Mode:None
Update Check Mode:RepoManifest
Current Version:7.0.5
Current Version Code:235

